{
  "description": "Textastic Code Completion for JavaScript",
  "uuid": "DE267669-E66E-400A-ACEA-BD906DC2B812",
  "completionSets": [
    {
      "name": "js.keywords.control",
      "defaultAppend": "",
      "strings": [
        {
          "string": "continue",
          "append": ";"
        },
        {
          "string": "for",
          "append": " (${1:${2:var i = 0}; ${3:i < count}; ${4:i++}}) {\n\t$0\n}"
        },
        {
          "string": "forin",
          "replace": "for (${1:variable} in ${2:object}) {\n\t$0\n}"
        },
        {
          "string": "if",
          "append": " ($1) {\n\t$0\n}"
        },
        {
          "string": "else",
          "append": " {\n\t$0\n}"
        },
        {
          "string": "switch",
          "append": " ($1) {\n\t$0\n}"
        },
        {
          "string": "case",
          "append": " ${1:condition}: "
        },
        {
          "string": "break",
          "append": ";"
        },
        {
          "string": "default",
          "append": ":"
        },
        {
          "string": "try",
          "append": " {\n\t$0\n}"
        },
        {
          "string": "catch",
          "append": " (${1:error}) {\n\t$0\n}"
        },
        {
          "string": "finally",
          "append": " {\n\t$0\n}"
        },
        "throw",
        {
          "string": "do",
          "append": " {\n\t$0\n} while ($1);"
        },
        {
          "string": "while",
          "append": " (${1:?}){\n\t$2\n}"
        },
        {
          "string": "with",
          "append": " ($1)  {\n\t$0\n}"
        },
        "in",
        "return",
        "void"
      ]
    },
    {
      "name": "js.keywords.control.else-if",
      "strings": [
        {
          "string": "else if",
          "append": " ($1) {\n\t$0\n}"
        }
      ]
    },
    {
      "name": "js.keywords",
      "defaultAppend": "",
      "strings": [
        {
          "string": "function",
          "append": " ${1:name}($2) {\n\t$0\n}"
        },
        "new",
        "delete",
        "super",
        "this",
        "var",
        "instanceof",
        "typeof",
        "Infinity",
        "undefined",
        "NaN",
        "true",
        "false",
        "null"
      ]
    },
    {
      "name": "js.native-objects",
      "defaultAppend": "($1)",
      "strings": [
        "Array",
        "Boolean",
        "Date",
        "Error",
        "Function",
        "Number",
        "Object",
        "RegExp",
        "String",
        "Image",
        "Node"
      ]
    },
    {
      "name": "js.native-objects.static",
      "strings": [
        "Date",
        "Math",
        "Number",
        "String",
        "Node"
      ]
    },
    {
      "name": "js.native-objects.Date",
      "strings": [
        {
          "string": "UTC",
          "append": "(${1:yyyy}, ${2:mm}, ${3:dd}${4:, ${5:hh}, ${6:mm}, ${7:ss}, ${8:ms}})"
        }
      ]
    },
    {
      "name": "js.native-objects.Math",
      "strings": [
        "E",
        "LN2",
        "LN10",
        "LOG2E",
        "LOG10E",
        "PI",
        "SQRT1_2",
        "SQRT2",
        {
          "string": "abs",
          "append": "(${1:number})"
        },
        {
          "string": "acos",
          "append": "(${1:number})"
        },
        {
          "string": "asin",
          "append": "(${1:number})"
        },
        {
          "string": "atan",
          "append": "(${1:number})"
        },
        {
          "string": "atan2",
          "append": "(${1:x}, ${2:y})"
        },
        {
          "string": "ceil",
          "append": "(${1:number})"
        },
        {
          "string": "cos",
          "append": "(${1:number})"
        },
        {
          "string": "exp",
          "append": "(${1:number})"
        },
        {
          "string": "floor",
          "append": "(${1:number})"
        },
        {
          "string": "log",
          "append": "(${1:number})"
        },
        {
          "string": "max",
          "append": "(${1:number1}, ${2:number2})"
        },
        {
          "string": "min",
          "append": "(${1:number1}, ${2:number2})"
        },
        {
          "string": "pow",
          "append": "(${1:number1}, ${2:number2})"
        },
        {
          "string": "random",
          "append": "()"
        },
        {
          "string": "round",
          "append": "(${1:number})"
        },
        {
          "string": "sin",
          "append": "(${1:number})"
        },
        {
          "string": "sqrt",
          "append": "(${1:number})"
        },
        {
          "string": "tan",
          "append": "(${1:number})"
        }
      ]
    },
    {
      "name": "js.native-objects.Number",
      "strings": [
        "MAX_VALUE",
        "MIN_VALUE",
        "NEGATIVE_INFINITY",
        "POSITIVE_INFINITY"
      ]
    },
    {
      "name": "js.native-objects.String",
      "strings": [
        {
          "string": "fromCharCode",
          "append": "(${1:num1}${2:, ${3:num2 ...}})"
        }
      ]
    },
    {
      "name": "js.native-objects.Node",
      "strings": [
        "ATTRIBUTE_NODE",
        "CDATA_SECTION_NODE",
        "COMMENT_NODE",
        "DOCUMENT_FRAGMENT_NODE",
        "DOCUMENT_NODE",
        "DOCUMENT_TYPE_NODE",
        "ELEMENT_NODE",
        "ENTITY_NODE",
        "ENTITY_REFERENCE_NODE",
        "NOTATION_NODE",
        "PROCESSING_INSTRUCTION_NODE",
        "TEXT_NODE"
      ]
    },
    {
      "name": "js.functions",
      "defaultAppend": "(${1:string})",
      "strings": [
        {
          "string": "decodeURI",
          "append": "(${1:encodedURI})"
        },
        {
          "string": "decodeURIComponent",
          "append": "(${1:encodedURIComponent})"
        },
        "encodeURI",
        "encodeURIComponent",
        "escape",
        "eval",
        {
          "string": "isFinite",
          "append": "(${1:expression})"
        },
        {
          "string": "isNaN",
          "append": "(${1:expression})"
        },
        {
          "string": "parseInt",
          "append": "(${1:string}${2:, ${3:base}})"
        },
        "parseFloat",
        "unescape"
      ]
    },
    {
      "name": "js.properties",
      "strings": [
        "constructor",
        "length",
        "message",
        "name",
        "caller",
        "global",
        "ignoreCase",
        "lastIndex",
        "multiline",
        "source"
      ]
    },
    {
      "name": "js.methods",
      "defaultAppend": "()",
      "strings": [
        "toLocaleString",
        "toString",
        "valueOf",
        {
          "string": "concat",
          "append": "(${1:array1}${2:, ${3:array2, ...}})"
        },
        {
          "string": "join",
          "append": "(${1:delimiter})"
        },
        "pop",
        {
          "string": "push",
          "append": "(${1:item1}${2:, ${3:item2, ...}})"
        },
        "reverse",
        "shift",
        {
          "string": "slice",
          "append": "(${1:startIndex}${2:, ${3:endIndex}})"
        },
        {
          "string": "sort",
          "append": "(${1:function(a, b) {$2\\}})"
        },
        {
          "string": "splice",
          "append": "(${1:startIndex}, ${2:deleteCount}${3:, ${4:replacingItem1, ...}})"
        },
        {
          "string": "unshift",
          "append": "(${1:item1}${2:, ${3:item2, ...}})"
        },
        "getDate",
        "getDay",
        "getFullYear",
        "getHours",
        "getMilliseconds",
        "getMinutes",
        "getMonth",
        "getSeconds",
        "getTime",
        "getTimezoneOffset",
        "getUTCDate",
        "getUTCDay",
        "getUTCFullYear",
        "getUTCHours",
        "getUTCMilliseconds",
        "getUTCMinutes",
        "getUTCMonth",
        "getUTCSeconds",
        "getYear",
        {
          "string": "parse",
          "append": "(${1:dateString})"
        },
        {
          "string": "setDate",
          "append": "(${1:dateInteger})"
        },
        {
          "string": "setFullYear",
          "append": "(${1:yearInteger})"
        },
        {
          "string": "setHours",
          "append": "(${1:hoursInteger})"
        },
        {
          "string": "setMilliseconds",
          "append": "(${1:msInteger})"
        },
        {
          "string": "setMinutes",
          "append": "(${1:minutesInteger})"
        },
        {
          "string": "setMonth",
          "append": "(${1:monthInteger})"
        },
        {
          "string": "setSeconds",
          "append": "(${1:secondsInteger})"
        },
        {
          "string": "setTime",
          "append": "(${1:msInteger})"
        },
        {
          "string": "setUTCDate",
          "append": "(${1:dateInteger})"
        },
        {
          "string": "setUTCFullYear",
          "append": "(${1:yearInteger})"
        },
        {
          "string": "setUTCHours",
          "append": "(${1:hoursInteger})"
        },
        {
          "string": "setUTCMilliseconds",
          "append": "(${1:msInteger})"
        },
        {
          "string": "setUTCMinutes",
          "append": "(${1:minutesInteger})"
        },
        {
          "string": "setUTCMonth",
          "append": "(${1:monthInteger})"
        },
        {
          "string": "setUTCSeconds",
          "append": "(${1:secondsInteger})"
        },
        {
          "string": "setYear",
          "append": "(${1:yearInteger})"
        },
        "toDateString",
        "toGMTString",
        "toLocaleDateString",
        "toLocaleTimeString",
        "toTimeString",
        "toUTCString",
        {
          "string": "apply",
          "append": "(${1:${2:thisOjbect}, ${3:argumentsArray}})"
        },
        {
          "string": "call",
          "append": "(${1:${2:thisObject}${3:, ${4:arg1, ...}}})"
        },
        {
          "string": "toExponential",
          "append": "(${1:fractionDigits})"
        },
        {
          "string": "toFixed",
          "append": "(${1:fractionDigits})"
        },
        {
          "string": "toPrecision",
          "append": "(${1:precisionDigits})"
        },
        {
          "string": "hasOwnProperty",
          "append": "(${1:propertyName})"
        },
        {
          "string": "isPrototypeOf",
          "append": "(${1:objectReference})"
        },
        {
          "string": "exec",
          "append": "(${1:string})"
        },
        {
          "string": "test",
          "append": "(${1:string})"
        },
        {
          "string": "charAt",
          "append": "(${1:positionIndex})"
        },
        {
          "string": "charCodeAt",
          "append": "(${1:positionIndex})"
        },
        {
          "string": "concat",
          "append": "(${1:string2})"
        },
        {
          "string": "indexOf",
          "append": "(${1:search}${2:, ${3:fromIndex}})"
        },
        {
          "string": "lastIndexOf",
          "append": "(${1:search}${2:, ${3:fromIndex}})"
        },
        {
          "string": "localeCompare",
          "append": "(${1:string2})"
        },
        {
          "string": "match",
          "append": "(${1:regex})"
        },
        {
          "string": "replace",
          "append": "(${1:regex}, ${2:replacement})"
        },
        {
          "string": "search",
          "append": "(${1:regex})"
        },
        {
          "string": "slice",
          "append": "(${1:startPositionIndex}, ${2:endPositionIndex})"
        },
        {
          "string": "split",
          "append": "(${1:delimiter}${2:, ${3:limitInteger}})"
        },
        {
          "string": "substr",
          "append": "(${1:startPositionIndex}${2:, ${3:length}})"
        },
        {
          "string": "substring",
          "append": "(${1:startPositionIndex}, ${2:endPositionIndex})"
        },
        "toLocaleLowerCase",
        "toLocaleUpperCase",
        "toLowerCase",
        "toUpperCase"
      ]
    },
    {
      "name": "scriptable.native-objects.args",
      "strings": []
    },
    {
      "name": "scriptable.native-objects.Calendar",
      "strings": [
        {
          "string": "forReminders",
          "append": "()${0:// +Promise[:t=[Calendar]]}",
          "orig": "fn() -> +Promise[:t=[Calendar]]"
        },
        {
          "string": "forEvents",
          "append": "()${0:// +Promise[:t=[Calendar]]}",
          "orig": "fn() -> +Promise[:t=[Calendar]]"
        },
        {
          "string": "forRemindersByTitle",
          "append": "(${1:title}tring)${0:// +Promise[:t=Calendar]}",
          "orig": "fn(title: string) -> +Promise[:t=Calendar]"
        },
        {
          "string": "forEventsByTitle",
          "append": "(${1:title}tring)${0:// +Promise[:t=Calendar]}",
          "orig": "fn(title: string) -> +Promise[:t=Calendar]"
        },
        {
          "string": "createForReminders",
          "append": "(${1:title}tring)${0:// +Promise[:t=Calendar]}",
          "orig": "fn(title: string) -> +Promise[:t=Calendar]"
        },
        {
          "string": "findOrCreateForReminders",
          "append": "(${1:title}tring)${0:// +Promise[:t=Calendar]}",
          "orig": "fn(title: string) -> +Promise[:t=Calendar]"
        },
        {
          "string": "defaultForReminders",
          "append": "()${0:// +Promise[:t=Calendar]}",
          "orig": "fn() -> +Promise[:t=Calendar]"
        },
        {
          "string": "defaultForEvents",
          "append": "()${0:// +Promise[:t=Calendar]}",
          "orig": "fn() -> +Promise[:t=Calendar]"
        },
        {
          "string": "presentPicker",
          "append": "(${1:allowMultiple}ool)${0:// +Promise[:t=[Calendar]]}",
          "orig": "fn(allowMultiple: bool) -> +Promise[:t=[Calendar]]"
        }
      ]
    },
    {
      "name": "scriptable.native-objects.config",
      "strings": []
    },
    {
      "name": "scriptable.native-objects.console",
      "strings": [
        {
          "string": "log",
          "append": "(${1:message}ny)",
          "orig": "fn(message: any)"
        },
        {
          "string": "warn",
          "append": "(${1:message}ny)",
          "orig": "fn(message: any)"
        },
        {
          "string": "error",
          "append": "(${1:message}ny)",
          "orig": "fn(message: any)"
        }
      ]
    },
    {
      "name": "scriptable.native-objects.ContactsContainer",
      "strings": [
        {
          "string": "default",
          "append": "()${0:// +Promise[:t=ContactsContainer]}",
          "orig": "fn() -> +Promise[:t=ContactsContainer]"
        },
        {
          "string": "all",
          "append": "()${0:// +Promise[:t=[ContactsContainer]]}",
          "orig": "fn() -> +Promise[:t=[ContactsContainer]]"
        },
        {
          "string": "withIdentifier",
          "append": "(${1:identifier}tring)${0:// +Promise[:t=ContactsContainer]}",
          "orig": "fn(identifier: string) -> +Promise[:t=ContactsContainer]"
        }
      ]
    },
    {
      "name": "scriptable.native-objects.Data",
      "strings": [
        {
          "string": "fromString",
          "append": "(${1:string}tring)${0:// +Data}",
          "orig": "fn(string: string) -> +Data"
        },
        {
          "string": "fromFile",
          "append": "(${1:filePath}tring)${0:// +Data}",
          "orig": "fn(filePath: string) -> +Data"
        },
        {
          "string": "fromBase64String",
          "append": "(${1:base64String}tring)${0:// +Data}",
          "orig": "fn(base64String: string) -> +Data"
        },
        {
          "string": "fromJPEG",
          "append": "(${1:image}mage)${0:// +Data}",
          "orig": "fn(image: Image) -> +Data"
        },
        {
          "string": "fromPNG",
          "append": "(${1:image}mage)${0:// +Data}",
          "orig": "fn(image: Image) -> +Data"
        }
      ]
    },
    {
      "name": "scriptable.native-objects.Device",
      "strings": [
        {
          "string": "name",
          "append": "()${0:// string}",
          "orig": "fn() -> string"
        },
        {
          "string": "systemName",
          "append": "()${0:// string}",
          "orig": "fn() -> string"
        },
        {
          "string": "systemVersion",
          "append": "()${0:// string}",
          "orig": "fn() -> string"
        },
        {
          "string": "model",
          "append": "()${0:// string}",
          "orig": "fn() -> string"
        },
        {
          "string": "isPhone",
          "append": "()${0:// bool}",
          "orig": "fn() -> bool"
        },
        {
          "string": "isPad",
          "append": "()${0:// bool}",
          "orig": "fn() -> bool"
        },
        {
          "string": "screenSize",
          "append": "()${0:// Size}",
          "orig": "fn() -> Size"
        },
        {
          "string": "screenResolution",
          "append": "()${0:// Size}",
          "orig": "fn() -> Size"
        },
        {
          "string": "screenScale",
          "append": "()${0:// number}",
          "orig": "fn() -> number"
        },
        {
          "string": "screenBrightness",
          "append": "()${0:// number}",
          "orig": "fn() -> number"
        },
        {
          "string": "isInPortrait",
          "append": "()${0:// bool}",
          "orig": "fn() -> bool"
        },
        {
          "string": "isInPortraitUpsideDown",
          "append": "()${0:// bool}",
          "orig": "fn() -> bool"
        },
        {
          "string": "isInLandscapeLeft",
          "append": "()${0:// bool}",
          "orig": "fn() -> bool"
        },
        {
          "string": "isInLandscapeRight",
          "append": "()${0:// bool}",
          "orig": "fn() -> bool"
        },
        {
          "string": "isFaceUp",
          "append": "()${0:// bool}",
          "orig": "fn() -> bool"
        },
        {
          "string": "isFaceDown",
          "append": "()${0:// bool}",
          "orig": "fn() -> bool"
        },
        {
          "string": "batteryLevel",
          "append": "()${0:// number}",
          "orig": "fn() -> number"
        },
        {
          "string": "isDischarging",
          "append": "()${0:// bool}",
          "orig": "fn() -> bool"
        },
        {
          "string": "isCharging",
          "append": "()${0:// bool}",
          "orig": "fn() -> bool"
        },
        {
          "string": "isFullyCharged",
          "append": "()${0:// bool}",
          "orig": "fn() -> bool"
        },
        {
          "string": "preferredLanguages",
          "append": "()${0:// [string]}",
          "orig": "fn() -> [string]"
        },
        {
          "string": "locale",
          "append": "()${0:// string}",
          "orig": "fn() -> string"
        },
        {
          "string": "language",
          "append": "()${0:// string}",
          "orig": "fn() -> string"
        },
        {
          "string": "isUsingDarkAppearance",
          "append": "()${0:// bool}",
          "orig": "fn() -> bool"
        },
        {
          "string": "volume",
          "append": "()${0:// number}",
          "orig": "fn() -> number"
        },
        {
          "string": "setScreenBrightness",
          "append": "(${1:percentage}umber)",
          "orig": "fn(percentage: number)"
        }
      ]
    },
    {
      "name": "scriptable.native-objects.Dictation",
      "strings": [
        {
          "string": "start",
          "append": "(${1:locale}tring)${0:// +Promise[:t=string]}",
          "orig": "fn(locale: string) -> +Promise[:t=string]"
        }
      ]
    },
    {
      "name": "scriptable.native-objects.DocumentPicker",
      "strings": [
        {
          "string": "open",
          "append": "(${1:types}[string])${0:// +Promise[:t=[string]]}",
          "orig": "fn(types: [string]) -> +Promise[:t=[string]]"
        },
        {
          "string": "openFile",
          "append": "()${0:// +Promise[:t=string]}",
          "orig": "fn() -> +Promise[:t=string]"
        },
        {
          "string": "openFolder",
          "append": "()${0:// +Promise[:t=string]}",
          "orig": "fn() -> +Promise[:t=string]"
        },
        {
          "string": "export",
          "append": "(${1:path}tring)${0:// +Promise[:t=[string]]}",
          "orig": "fn(path: string) -> +Promise[:t=[string]]"
        },
        {
          "string": "exportString",
          "append": "(${1:content}tring, ${2:name}tring)${0:// +Promise[:t=[string]]}",
          "orig": "fn(content: string, name: string) -> +Promise[:t=[string]]"
        },
        {
          "string": "exportImage",
          "append": "(${1:image}mage, ${2:name}tring)${0:// +Promise[:t=[string]]}",
          "orig": "fn(image: Image, name: string) -> +Promise[:t=[string]]"
        },
        {
          "string": "exportData",
          "append": "(${1:data}ata, ${2:name}tring)${0:// +Promise[:t=[string]]}",
          "orig": "fn(data: Data, name: string) -> +Promise[:t=[string]]"
        }
      ]
    },
    {
      "name": "scriptable.native-objects.FileManager",
      "strings": [
        {
          "string": "local",
          "append": "()${0:// +FileManager}",
          "orig": "fn() -> +FileManager"
        },
        {
          "string": "iCloud",
          "append": "()${0:// +FileManager}",
          "orig": "fn() -> +FileManager"
        }
      ]
    },
    {
      "name": "scriptable.native-objects.Image",
      "strings": [
        {
          "string": "fromFile",
          "append": "(${1:filePath}tring)${0:// +Image}",
          "orig": "fn(filePath: string) -> +Image"
        },
        {
          "string": "fromData",
          "append": "(${1:data}ata)${0:// +Image}",
          "orig": "fn(data: Data) -> +Image"
        }
      ]
    },
    {
      "name": "scriptable.native-objects.Keychain",
      "strings": [
        {
          "string": "contains",
          "append": "(${1:key}tring)${0:// bool}",
          "orig": "fn(key: string) -> bool"
        },
        {
          "string": "set",
          "append": "(${1:key}tring, ${2:value}tring)",
          "orig": "fn(key: string, value: string)"
        },
        {
          "string": "get",
          "append": "(${1:key}tring)${0:// string}",
          "orig": "fn(key: string) -> string"
        },
        {
          "string": "remove",
          "append": "(${1:key}tring)",
          "orig": "fn(key: string)"
        }
      ]
    },
    {
      "name": "scriptable.native-objects.Location",
      "strings": [
        {
          "string": "current",
          "append": "()${0:// +Promise[:t=any]}",
          "orig": "fn() -> +Promise[:t=any]"
        },
        {
          "string": "setAccuracyToBest",
          "append": "()",
          "orig": "fn()"
        },
        {
          "string": "setAccuracyToTenMeters",
          "append": "()",
          "orig": "fn()"
        },
        {
          "string": "setAccuracyToHundredMeters",
          "append": "()",
          "orig": "fn()"
        },
        {
          "string": "setAccuracyToKilometer",
          "append": "()",
          "orig": "fn()"
        },
        {
          "string": "setAccuracyToThreeKilometers",
          "append": "()",
          "orig": "fn()"
        },
        {
          "string": "reverseGeocode",
          "append": "(${1:latitude}umber, ${2:longitude}umber, ${3:locale}tring)${0:// [{${4:string}ny}]}",
          "orig": "fn(latitude: number, longitude: number, locale: string) -> [{string: any}]"
        }
      ]
    },
    {
      "name": "scriptable.native-objects.module",
      "strings": []
    },
    {
      "name": "scriptable.native-objects.Pasteboard",
      "strings": [
        {
          "string": "copy",
          "append": "(${1:string}tring)",
          "orig": "fn(string: string)"
        },
        {
          "string": "paste",
          "append": "()${0:// string}",
          "orig": "fn() -> string"
        },
        {
          "string": "copyString",
          "append": "(${1:string}tring)",
          "orig": "fn(string: string)"
        },
        {
          "string": "pasteString",
          "append": "()${0:// string}",
          "orig": "fn() -> string"
        },
        {
          "string": "copyImage",
          "append": "(${1:image}mage)",
          "orig": "fn(image: Image)"
        },
        {
          "string": "pasteImage",
          "append": "()${0:// Image}",
          "orig": "fn() -> Image"
        }
      ]
    },
    {
      "name": "scriptable.native-objects.Photos",
      "strings": [
        {
          "string": "fromLibrary",
          "append": "()${0:// +Promise[:t=Image]}",
          "orig": "fn() -> +Promise[:t=Image]"
        },
        {
          "string": "fromCamera",
          "append": "()${0:// +Promise[:t=Image]}",
          "orig": "fn() -> +Promise[:t=Image]"
        },
        {
          "string": "latestPhoto",
          "append": "()${0:// +Promise[:t=Image]}",
          "orig": "fn() -> +Promise[:t=Image]"
        },
        {
          "string": "latestPhotos",
          "append": "(${1:count}umber)${0:// +Promise[:t=[Image]]}",
          "orig": "fn(count: number) -> +Promise[:t=[Image]]"
        },
        {
          "string": "latestScreenshot",
          "append": "()${0:// +Promise[:t=Image]}",
          "orig": "fn() -> +Promise[:t=Image]"
        },
        {
          "string": "latestScreenshots",
          "append": "(${1:count}umber)${0:// +Promise[:t=[Image]]}",
          "orig": "fn(count: number) -> +Promise[:t=[Image]]"
        },
        {
          "string": "removeLatestPhoto",
          "append": "()",
          "orig": "fn()"
        },
        {
          "string": "removeLatestPhotos",
          "append": "(${1:count}umber)",
          "orig": "fn(count: number)"
        },
        {
          "string": "removeLatestScreenshot",
          "append": "()",
          "orig": "fn()"
        },
        {
          "string": "removeLatestScreenshots",
          "append": "(${1:count}umber)",
          "orig": "fn(count: number)"
        },
        {
          "string": "save",
          "append": "(${1:image}mage)",
          "orig": "fn(image: Image)"
        }
      ]
    },
    {
      "name": "scriptable.native-objects.QuickLook",
      "strings": [
        {
          "string": "present",
          "append": "(${1:item}ny, ${2:fullscreen}ool)${0:// +Promise}",
          "orig": "fn(item: any, fullscreen: bool) -> +Promise"
        }
      ]
    },
    {
      "name": "scriptable.native-objects.RecurrenceRule",
      "strings": [
        {
          "string": "daily",
          "append": "(${1:interval}umber)${0:// +RecurrenceRule}",
          "orig": "fn(interval: number) -> +RecurrenceRule"
        },
        {
          "string": "dailyEndDate",
          "append": "(${1:interval}umber, ${2:endDate}ate)${0:// +RecurrenceRule}",
          "orig": "fn(interval: number, endDate: Date) -> +RecurrenceRule"
        },
        {
          "string": "dailyOccurrenceCount",
          "append": "(${1:interval}umber, ${2:occurrenceCount}umber)${0:// +RecurrenceRule}",
          "orig": "fn(interval: number, occurrenceCount: number) -> +RecurrenceRule"
        },
        {
          "string": "weekly",
          "append": "(${1:interval}umber)${0:// +RecurrenceRule}",
          "orig": "fn(interval: number) -> +RecurrenceRule"
        },
        {
          "string": "weeklyEndDate",
          "append": "(${1:interval}umber, ${2:endDate}ate)${0:// +RecurrenceRule}",
          "orig": "fn(interval: number, endDate: Date) -> +RecurrenceRule"
        },
        {
          "string": "weeklyOccurrenceCount",
          "append": "(${1:interval}umber, ${2:occurrenceCount}umber)${0:// +RecurrenceRule}",
          "orig": "fn(interval: number, occurrenceCount: number) -> +RecurrenceRule"
        },
        {
          "string": "monthly",
          "append": "(${1:interval}umber)${0:// +RecurrenceRule}",
          "orig": "fn(interval: number) -> +RecurrenceRule"
        },
        {
          "string": "monthlyEndDate",
          "append": "(${1:interval}umber, ${2:endDate}ate)${0:// +RecurrenceRule}",
          "orig": "fn(interval: number, endDate: Date) -> +RecurrenceRule"
        },
        {
          "string": "monthlyOccurrenceCount",
          "append": "(${1:interval}umber, ${2:occurrenceCount}umber)${0:// +RecurrenceRule}",
          "orig": "fn(interval: number, occurrenceCount: number) -> +RecurrenceRule"
        },
        {
          "string": "yearly",
          "append": "(${1:interval}umber)${0:// +RecurrenceRule}",
          "orig": "fn(interval: number) -> +RecurrenceRule"
        },
        {
          "string": "yearlyEndDate",
          "append": "(${1:interval}umber, ${2:endDate}ate)${0:// +RecurrenceRule}",
          "orig": "fn(interval: number, endDate: Date) -> +RecurrenceRule"
        },
        {
          "string": "yearlyOccurrenceCount",
          "append": "(${1:interval}umber, ${2:occurrenceCount}umber)${0:// +RecurrenceRule}",
          "orig": "fn(interval: number, occurrenceCount: number) -> +RecurrenceRule"
        },
        {
          "string": "complexWeekly",
          "append": "(${1:interval}umber, ${2:daysOfTheWeek}[number], ${3:setPositions}[number])${0:// +RecurrenceRule}",
          "orig": "fn(interval: number, daysOfTheWeek: [number], setPositions: [number]) -> +RecurrenceRule"
        },
        {
          "string": "complexWeeklyEndDate",
          "append": "(${1:interval}umber, ${2:daysOfTheWeek}[number], ${3:setPositions}[number], ${4:endDate}ate)${0:// +RecurrenceRule}",
          "orig": "fn(interval: number, daysOfTheWeek: [number], setPositions: [number], endDate: Date) -> +RecurrenceRule"
        },
        {
          "string": "complexWeeklyOccurrenceCount",
          "append": "(${1:interval}umber, ${2:daysOfTheWeek}[number], ${3:setPositions}[number], ${4:occurrenceCount}umber)${0:// +RecurrenceRule}",
          "orig": "fn(interval: number, daysOfTheWeek: [number], setPositions: [number], occurrenceCount: number) -> +RecurrenceRule"
        },
        {
          "string": "complexMonthly",
          "append": "(${1:interval}umber, ${2:daysOfTheWeek}[number], ${3:daysOfTheMonth}[number], ${4:setPositions}[number])${0:// +RecurrenceRule}",
          "orig": "fn(interval: number, daysOfTheWeek: [number], daysOfTheMonth: [number], setPositions: [number]) -> +RecurrenceRule"
        },
        {
          "string": "complexMonthlyEndDate",
          "append": "(${1:interval}umber, ${2:daysOfTheWeek}[number], ${3:daysOfTheMonth}[number], ${4:setPositions}[number], ${5:endDate}ate)${0:// +RecurrenceRule}",
          "orig": "fn(interval: number, daysOfTheWeek: [number], daysOfTheMonth: [number], setPositions: [number], endDate: Date) -> +RecurrenceRule"
        },
        {
          "string": "complexMonthlyOccurrenceCount",
          "append": "(${1:interval}umber, ${2:daysOfTheWeek}[number], ${3:daysOfTheMonth}[number], ${4:setPositions}[number], ${5:occurrenceCount}umber)${0:// +RecurrenceRule}",
          "orig": "fn(interval: number, daysOfTheWeek: [number], daysOfTheMonth: [number], setPositions: [number], occurrenceCount: number) -> +RecurrenceRule"
        },
        {
          "string": "complexYearly",
          "append": "(${1:interval}umber, ${2:daysOfTheWeek}[number], ${3:monthsOfTheYear}[number], ${4:weeksOfTheYear}[number], ${5:daysOfTheYear}[number], ${6:setPositions}[number])${0:// +RecurrenceRule}",
          "orig": "fn(interval: number, daysOfTheWeek: [number], monthsOfTheYear: [number], weeksOfTheYear: [number], daysOfTheYear: [number], setPositions: [number]) -> +RecurrenceRule"
        },
        {
          "string": "complexYearlyEndDate",
          "append": "(${1:interval}umber, ${2:daysOfTheWeek}[number], ${3:monthsOfTheYear}[number], ${4:weeksOfTheYear}[number], ${5:daysOfTheYear}[number], ${6:setPositions}[number], ${7:endDate}ate)${0:// +RecurrenceRule}",
          "orig": "fn(interval: number, daysOfTheWeek: [number], monthsOfTheYear: [number], weeksOfTheYear: [number], daysOfTheYear: [number], setPositions: [number], endDate: Date) -> +RecurrenceRule"
        },
        {
          "string": "complexYearlyOccurrenceCount",
          "append": "(${1:interval}umber, ${2:daysOfTheWeek}[number], ${3:monthsOfTheYear}[number], ${4:weeksOfTheYear}[number], ${5:daysOfTheYear}[number], ${6:setPositions}[number], ${7:occurrenceCount}umber)${0:// +RecurrenceRule}",
          "orig": "fn(interval: number, daysOfTheWeek: [number], monthsOfTheYear: [number], weeksOfTheYear: [number], daysOfTheYear: [number], setPositions: [number], occurrenceCount: number) -> +RecurrenceRule"
        }
      ]
    },
    {
      "name": "scriptable.native-objects.SFSymbol",
      "strings": [
        {
          "string": "named",
          "append": "(${1:symbolName}tring)${0:// +SFSymbol}",
          "orig": "fn(symbolName: string) -> +SFSymbol"
        }
      ]
    },
    {
      "name": "scriptable.native-objects.Safari",
      "strings": [
        {
          "string": "openInApp",
          "append": "(${1:url}tring, ${2:fullscreen}ool)${0:// +Promise}",
          "orig": "fn(url: string, fullscreen: bool) -> +Promise"
        },
        {
          "string": "open",
          "append": "(${1:url}tring)",
          "orig": "fn(url: string)"
        }
      ]
    },
    {
      "name": "scriptable.native-objects.Script",
      "strings": [
        {
          "string": "name",
          "append": "()${0:// string}",
          "orig": "fn() -> string"
        },
        {
          "string": "complete",
          "append": "()",
          "orig": "fn()"
        },
        {
          "string": "setShortcutOutput",
          "append": "(${1:value}ny)",
          "orig": "fn(value: any)"
        },
        {
          "string": "setWidget",
          "append": "(${1:widget}ny)",
          "orig": "fn(widget: any)"
        }
      ]
    },
    {
      "name": "scriptable.native-objects.ShareSheet",
      "strings": [
        {
          "string": "present",
          "append": "(${1:activityItems}[any])${0:// +Promise[:t=any]}",
          "orig": "fn(activityItems: [any]) -> +Promise[:t=any]"
        }
      ]
    },
    {
      "name": "scriptable.native-objects.Speech",
      "strings": [
        {
          "string": "speak",
          "append": "(${1:text}tring)",
          "orig": "fn(text: string)"
        }
      ]
    },
    {
      "name": "scriptable.native-objects.UITableCell",
      "strings": [
        {
          "string": "text",
          "append": "(${1:title}tring, ${2:subtitle}tring)${0:// +UITableCell}",
          "orig": "fn(title: string, subtitle: string) -> +UITableCell"
        },
        {
          "string": "image",
          "append": "(${1:image}mage)${0:// +UITableCell}",
          "orig": "fn(image: Image) -> +UITableCell"
        },
        {
          "string": "imageAtURL",
          "append": "(${1:url}tring)${0:// +UITableCell}",
          "orig": "fn(url: string) -> +UITableCell"
        },
        {
          "string": "button",
          "append": "(${1:title}tring)${0:// +UITableCell}",
          "orig": "fn(title: string) -> +UITableCell"
        }
      ]
    },
    {
      "name": "scriptable.native-objects.URLScheme",
      "strings": [
        {
          "string": "forOpeningScript",
          "append": "()${0:// string}",
          "orig": "fn() -> string"
        },
        {
          "string": "forOpeningScriptSettings",
          "append": "()${0:// string}",
          "orig": "fn() -> string"
        },
        {
          "string": "forRunningScript",
          "append": "()${0:// string}",
          "orig": "fn() -> string"
        }
      ]
    },
    {
      "name": "scriptable.native-objects.UUID",
      "strings": [
        {
          "string": "string",
          "append": "()${0:// string}",
          "orig": "fn() -> string"
        }
      ]
    },
    {
      "name": "scriptable.native-objects.WidgetDate",
      "strings": []
    },
    {
      "name": "scriptable.native-objects.WidgetImage",
      "strings": []
    },
    {
      "name": "scriptable.native-objects.WidgetSpacer",
      "strings": []
    },
    {
      "name": "scriptable.native-objects.WidgetStack",
      "strings": []
    },
    {
      "name": "scriptable.native-objects.WidgetText",
      "strings": []
    }
  ],
  "contexts": [
    {
      "description": "Control keywords",
      "scope": "source.js - comment - string",
      "pattern": "(?<!\\.|\\[|\\(|,)\\b([a-zA-Z]+)",
      "completionCaptureIndex": 1,
      "completionSetNames": [
        "js.keywords.control"
      ]
    },
    {
      "description": "else if keyword",
      "scope": "source.js - comment - string",
      "pattern": "(?<!\\.|\\[|\\(|,)\\b(e[lse if]*)",
      "completionCaptureIndex": 1,
      "completionSetNames": [
        "js.keywords.control.else-if"
      ]
    },
    {
      "description": "Non-control keywords",
      "scope": "source.js - comment - string",
      "pattern": "(?<!\\.)\\b([a-zA-Z]+)",
      "completionCaptureIndex": 1,
      "completionSetNames": [
        "js.keywords"
      ]
    },
    {
      "description": "Variables and functions",
      "scope": "source.js - comment - string",
      "pattern": "(?<!\\.)\\b([a-zA-Z]+)",
      "completionCaptureIndex": 1,
      "completionSetNames": [
        "js.functions",
        "scriptable.global.functions"
      ]
    },
    {
      "description": "Properties and methods",
      "scope": "source.js - comment - string",
      "pattern": "\\.([a-zA-Z][a-zA-Z ]*)",
      "completionCaptureIndex": 1,
      "completionSetNames": [
        "js.properties",
        "js.methods",
        "js.dom.properties",
        "js.dom.methods"
      ]
    },
    {
      "description": "Native objects",
      "scope": "source.js - comment - string",
      "pattern": "\\bnew\\s+([a-zA-Z]*)",
      "completionCaptureIndex": 1,
      "completionSetNames": [
        "js.native-objects"
      ]
    },
    {
      "description": "Native objects, without \"new\"",
      "scope": "source.js - comment - string",
      "pattern": "(?<!new )\\b([A-Z][a-zA-Z]*)",
      "completionCaptureIndex": 1,
      "completionSetNames": [
        "js.native-objects.static"
      ]
    },
    {
      "description": "Native objects, Date",
      "scope": "source.js - comment - string",
      "pattern": "\\bDate\\.(\\w*)",
      "completionCaptureIndex": 1,
      "completionSetNames": [
        "js.native-objects.Date"
      ]
    },
    {
      "description": "Native objects, Math",
      "scope": "source.js - comment - string",
      "pattern": "\\bMath\\.(\\w*)",
      "completionCaptureIndex": 1,
      "completionSetNames": [
        "js.native-objects.Math"
      ]
    },
    {
      "description": "Native objects, Number",
      "scope": "source.js - comment - string",
      "pattern": "\\bNumber\\.(\\w*)",
      "completionCaptureIndex": 1,
      "completionSetNames": [
        "js.native-objects.Number"
      ]
    },
    {
      "description": "Native objects, String",
      "scope": "source.js - comment - string",
      "pattern": "\\bString\\.(\\w*)",
      "completionCaptureIndex": 1,
      "completionSetNames": [
        "js.native-objects.String"
      ]
    },
    {
      "description": "Native objects, Node",
      "scope": "source.js - comment - string",
      "pattern": "\\bNode\\.(\\w*)",
      "completionCaptureIndex": 1,
      "completionSetNames": [
        "js.native-objects.Node"
      ]
    },
    {
      "description": "DOM events",
      "scope": "source.js string",
      "pattern": "\\b(?:addEventListener|removeEventListener)\\s*\\(\\s*['\"]([a-zA-Z]*)",
      "completionCaptureIndex": 1,
      "completionSetNames": [
        "js.dom.events"
      ]
    },
    {
      "description": "Native objects, args",
      "scope": "source.js - comment - string",
      "pattern": "\\bargs\\.(\\w*)",
      "completionCaptureIndex": 1,
      "completionSetNames": [
        "scriptable.native-objects.args"
      ]
    },
    {
      "description": "Native objects, Calendar",
      "scope": "source.js - comment - string",
      "pattern": "\\bCalendar\\.(\\w*)",
      "completionCaptureIndex": 1,
      "completionSetNames": [
        "scriptable.native-objects.Calendar"
      ]
    },
    {
      "description": "Native objects, config",
      "scope": "source.js - comment - string",
      "pattern": "\\bconfig\\.(\\w*)",
      "completionCaptureIndex": 1,
      "completionSetNames": [
        "scriptable.native-objects.config"
      ]
    },
    {
      "description": "Native objects, console",
      "scope": "source.js - comment - string",
      "pattern": "\\bconsole\\.(\\w*)",
      "completionCaptureIndex": 1,
      "completionSetNames": [
        "scriptable.native-objects.console"
      ]
    },
    {
      "description": "Native objects, ContactsContainer",
      "scope": "source.js - comment - string",
      "pattern": "\\bContactsContainer\\.(\\w*)",
      "completionCaptureIndex": 1,
      "completionSetNames": [
        "scriptable.native-objects.ContactsContainer"
      ]
    },
    {
      "description": "Native objects, Data",
      "scope": "source.js - comment - string",
      "pattern": "\\bData\\.(\\w*)",
      "completionCaptureIndex": 1,
      "completionSetNames": [
        "scriptable.native-objects.Data"
      ]
    },
    {
      "description": "Native objects, Device",
      "scope": "source.js - comment - string",
      "pattern": "\\bDevice\\.(\\w*)",
      "completionCaptureIndex": 1,
      "completionSetNames": [
        "scriptable.native-objects.Device"
      ]
    },
    {
      "description": "Native objects, Dictation",
      "scope": "source.js - comment - string",
      "pattern": "\\bDictation\\.(\\w*)",
      "completionCaptureIndex": 1,
      "completionSetNames": [
        "scriptable.native-objects.Dictation"
      ]
    },
    {
      "description": "Native objects, DocumentPicker",
      "scope": "source.js - comment - string",
      "pattern": "\\bDocumentPicker\\.(\\w*)",
      "completionCaptureIndex": 1,
      "completionSetNames": [
        "scriptable.native-objects.DocumentPicker"
      ]
    },
    {
      "description": "Native objects, FileManager",
      "scope": "source.js - comment - string",
      "pattern": "\\bFileManager\\.(\\w*)",
      "completionCaptureIndex": 1,
      "completionSetNames": [
        "scriptable.native-objects.FileManager"
      ]
    },
    {
      "description": "Native objects, Image",
      "scope": "source.js - comment - string",
      "pattern": "\\bImage\\.(\\w*)",
      "completionCaptureIndex": 1,
      "completionSetNames": [
        "scriptable.native-objects.Image"
      ]
    },
    {
      "description": "Native objects, Keychain",
      "scope": "source.js - comment - string",
      "pattern": "\\bKeychain\\.(\\w*)",
      "completionCaptureIndex": 1,
      "completionSetNames": [
        "scriptable.native-objects.Keychain"
      ]
    },
    {
      "description": "Native objects, Location",
      "scope": "source.js - comment - string",
      "pattern": "\\bLocation\\.(\\w*)",
      "completionCaptureIndex": 1,
      "completionSetNames": [
        "scriptable.native-objects.Location"
      ]
    },
    {
      "description": "Native objects, module",
      "scope": "source.js - comment - string",
      "pattern": "\\bmodule\\.(\\w*)",
      "completionCaptureIndex": 1,
      "completionSetNames": [
        "scriptable.native-objects.module"
      ]
    },
    {
      "description": "Native objects, Pasteboard",
      "scope": "source.js - comment - string",
      "pattern": "\\bPasteboard\\.(\\w*)",
      "completionCaptureIndex": 1,
      "completionSetNames": [
        "scriptable.native-objects.Pasteboard"
      ]
    },
    {
      "description": "Native objects, Photos",
      "scope": "source.js - comment - string",
      "pattern": "\\bPhotos\\.(\\w*)",
      "completionCaptureIndex": 1,
      "completionSetNames": [
        "scriptable.native-objects.Photos"
      ]
    },
    {
      "description": "Native objects, QuickLook",
      "scope": "source.js - comment - string",
      "pattern": "\\bQuickLook\\.(\\w*)",
      "completionCaptureIndex": 1,
      "completionSetNames": [
        "scriptable.native-objects.QuickLook"
      ]
    },
    {
      "description": "Native objects, RecurrenceRule",
      "scope": "source.js - comment - string",
      "pattern": "\\bRecurrenceRule\\.(\\w*)",
      "completionCaptureIndex": 1,
      "completionSetNames": [
        "scriptable.native-objects.RecurrenceRule"
      ]
    },
    {
      "description": "Native objects, SFSymbol",
      "scope": "source.js - comment - string",
      "pattern": "\\bSFSymbol\\.(\\w*)",
      "completionCaptureIndex": 1,
      "completionSetNames": [
        "scriptable.native-objects.SFSymbol"
      ]
    },
    {
      "description": "Native objects, Safari",
      "scope": "source.js - comment - string",
      "pattern": "\\bSafari\\.(\\w*)",
      "completionCaptureIndex": 1,
      "completionSetNames": [
        "scriptable.native-objects.Safari"
      ]
    },
    {
      "description": "Native objects, Script",
      "scope": "source.js - comment - string",
      "pattern": "\\bScript\\.(\\w*)",
      "completionCaptureIndex": 1,
      "completionSetNames": [
        "scriptable.native-objects.Script"
      ]
    },
    {
      "description": "Native objects, ShareSheet",
      "scope": "source.js - comment - string",
      "pattern": "\\bShareSheet\\.(\\w*)",
      "completionCaptureIndex": 1,
      "completionSetNames": [
        "scriptable.native-objects.ShareSheet"
      ]
    },
    {
      "description": "Native objects, Speech",
      "scope": "source.js - comment - string",
      "pattern": "\\bSpeech\\.(\\w*)",
      "completionCaptureIndex": 1,
      "completionSetNames": [
        "scriptable.native-objects.Speech"
      ]
    },
    {
      "description": "Native objects, UITableCell",
      "scope": "source.js - comment - string",
      "pattern": "\\bUITableCell\\.(\\w*)",
      "completionCaptureIndex": 1,
      "completionSetNames": [
        "scriptable.native-objects.UITableCell"
      ]
    },
    {
      "description": "Native objects, URLScheme",
      "scope": "source.js - comment - string",
      "pattern": "\\bURLScheme\\.(\\w*)",
      "completionCaptureIndex": 1,
      "completionSetNames": [
        "scriptable.native-objects.URLScheme"
      ]
    },
    {
      "description": "Native objects, UUID",
      "scope": "source.js - comment - string",
      "pattern": "\\bUUID\\.(\\w*)",
      "completionCaptureIndex": 1,
      "completionSetNames": [
        "scriptable.native-objects.UUID"
      ]
    },
    {
      "description": "Native objects, WidgetDate",
      "scope": "source.js - comment - string",
      "pattern": "\\bWidgetDate\\.(\\w*)",
      "completionCaptureIndex": 1,
      "completionSetNames": [
        "scriptable.native-objects.WidgetDate"
      ]
    },
    {
      "description": "Native objects, WidgetImage",
      "scope": "source.js - comment - string",
      "pattern": "\\bWidgetImage\\.(\\w*)",
      "completionCaptureIndex": 1,
      "completionSetNames": [
        "scriptable.native-objects.WidgetImage"
      ]
    },
    {
      "description": "Native objects, WidgetSpacer",
      "scope": "source.js - comment - string",
      "pattern": "\\bWidgetSpacer\\.(\\w*)",
      "completionCaptureIndex": 1,
      "completionSetNames": [
        "scriptable.native-objects.WidgetSpacer"
      ]
    },
    {
      "description": "Native objects, WidgetStack",
      "scope": "source.js - comment - string",
      "pattern": "\\bWidgetStack\\.(\\w*)",
      "completionCaptureIndex": 1,
      "completionSetNames": [
        "scriptable.native-objects.WidgetStack"
      ]
    },
    {
      "description": "Native objects, WidgetText",
      "scope": "source.js - comment - string",
      "pattern": "\\bWidgetText\\.(\\w*)",
      "completionCaptureIndex": 1,
      "completionSetNames": [
        "scriptable.native-objects.WidgetText"
      ]
    }
  ]
}